1	487.0	45.0	0
2	451.0	275.0	0
3	517.0	177.0	0
4	188.0	39.0	0
5	422.0	42.0	0
6	482.0	275.0	0
7	221.0	38.0	0
8	519.0	112.0	0
9	55.0	72.0	0
10	122.0	40.0	0
11	383.0	309.0	0
12	449.0	308.0	0
13	551.0	79.0	0
14	549.0	178.0	0
15	218.0	307.0	0
16	255.0	39.0	0
17	87.0	139.0	0
18	153.0	72.0	0
19	317.0	309.0	0
20	486.0	177.0	0
21	56.0	38.0	0
22	548.0	210.0	0
23	288.0	39.0	0
24	422.0	209.0	0
25	121.0	73.0	0
26	355.0	40.0	0
27	389.0	175.0	0
28	184.0	139.0	0
29	421.0	243.0	0
30	581.0	211.0	0
31	514.0	275.0	0
32	455.0	43.0	0
33	152.0	304.0	0
34	550.0	145.0	0
35	488.0	111.0	0
36	186.0	71.0	0
37	88.0	106.0	0
38	580.0	244.0	0
39	120.0	270.0	0
40	518.0	145.0	0
41	284.0	308.0	0
42	321.0	39.0	0
43	516.0	210.0	0
44	546.0	309.0	0
45	352.0	278.0	0
46	483.0	242.0	0
47	120.0	106.0	0
48	351.0	309.0	0
49	582.0	178.0	0
50	250.0	308.0	0
51	253.0	71.0	0
52	287.0	71.0	0
53	119.0	172.0	0
54	487.0	144.0	0
55	481.0	307.0	0
56	152.0	106.0	0
57	321.0	71.0	0
58	151.0	271.0	0
59	389.0	209.0	0
60	87.0	171.0	0
61	120.0	303.0	0
62	183.0	273.0	0
63	454.0	176.0	0
64	453.0	210.0	0
65	87.0	304.0	0
66	152.0	205.0	0
67	321.0	105.0	0
68	615.0	213.0	0
69	355.0	174.0	0
70	218.0	105.0	0
71	616.0	145.0	0
72	220.0	71.0	0
73	21.0	103.0	0
74	86.0	237.0	0
75	54.0	105.0	0
76	89.0	39.0	0
77	88.0	72.0	0
78	151.0	139.0	0
79	513.0	308.0	0
80	386.0	278.0	0
81	319.0	174.0	0
82	355.0	210.0	0
83	118.0	205.0	0
84	419.0	276.0	0
85	452.0	242.0	0
86	551.0	112.0	0
87	389.0	107.0	0
88	118.0	139.0	0
89	183.0	239.0	0
90	54.0	305.0	0
91	119.0	238.0	0
92	355.0	72.0	0
93	53.0	271.0	0
94	583.0	145.0	0
95	519.0	79.0	0
96	54.0	171.0	0
97	389.0	73.0	0
98	186.0	105.0	0
99	422.0	176.0	0
100	284.0	277.0	0
101	424.0	75.0	0
102	54.0	204.0	0
103	151.0	238.0	0
104	423.0	141.0	0
105	456.0	76.0	0
106	215.0	173.0	0
107	613.0	279.0	0
108	18.0	272.0	0
109	585.0	45.0	0
110	423.0	109.0	0
111	251.0	105.0	0
112	319.0	244.0	0
113	87.0	204.0	0
114	183.0	173.0	0
115	18.0	205.0	0
116	182.0	206.0	0
117	456.0	110.0	0
118	388.0	244.0	0
119	356.0	106.0	0
120	53.0	138.0	0
121	19.0	34.0	0
122	487.0	77.0	0
123	152.0	174.0	0
124	21.0	70.0	0
125	455.0	144.0	0
126	390.0	141.0	0
127	285.0	139.0	0
128	285.0	244.0	0
129	155.0	40.0	0
130	86.0	270.0	0
131	252.0	172.0	0
132	251.0	139.0	0
133	250.0	244.0	0
134	22.0	137.0	0
135	285.0	105.0	0
136	216.0	275.0	0
137	388.0	41.0	0
138	52.0	238.0	0
139	249.0	275.0	0
140	322.0	139.0	0
141	617.0	112.0	0
142	321.0	209.0	0
143	21.0	238.0	0
144	357.0	140.0	0
145	20.0	305.0	0
146	283.0	209.0	0
147	185.0	306.0	0
148	217.0	242.0	0
149	251.0	209.0	0
150	484.0	210.0	0
151	319.0	279.0	0
152	215.0	140.0	0
153	612.0	245.0	0
154	217.0	208.0	0
155	614.0	179.0	0
156	617.0	78.0	0
157	578.0	311.0	0
158	18.0	172.0	0
159	284.0	174.0	0
160	514.0	242.0	0
161	355.0	245.0	0
162	613.0	314.0	0
163	519.0	46.0	0
164	622.0	44.0	0
165	584.0	112.0	0
166	546.0	243.0	0
167	546.0	276.0	0
168	584.0	80.0	0
169	551.0	46.0	0
170	577.0	278.0	0
171	415.0	308.0	0